{
  "colors": [
    {
      "color": {
        "color-space": "srgb",
        "components": {
          "alpha": "1.000",
          "blue": "0x92",
          "green": "0x50",
          "red": "0x72"
        }
      },
      "idiom": "universal"
    },
    {
      "appearances": [
        {
          "appearance": "luminosity",
          "value": "dark"
        }
      ],
      "color": {
        "color-space": "srgb",
        "components": {
          "alpha": "1.000",
          "blue": "0x7F",
          "green": "0x32",
          "red": "0x57"
        }
      },
      "idiom": "universal"
    }
  ],
  "info": {
    "author": "xcode",
    "version": 1
  }
}
